{"meta": {"limit": 20, "next": "/api/v1/indicators/?username=nonroot&api_key=479fe8be39b5ce65a87f19b27929ccbb8ed45d93&limit=20&offset=20&format=json", "offset": 0, "previous": null, "total_count": 416}, "objects": [{"_id": "592b24e07f79fa013927af91", "actions": [], "activity": [], "attack_types": ["Unknown"], "bucket_list": ["phishing"], "campaign": [], "confidence": {"analyst": "nonroot", "rating": "unknown"}, "created": "2017-05-28 19:28:32.157000", "description": "Phishing email - Document Received- (scanned_New Invoice00874.pdf)", "impact": {"analyst": "nonroot", "rating": "unknown"}, "locations": [], "lower": "gcpwa.com", "modified": "2017-05-28 19:28:32.202000", "objects": [], "relationships": [{"analyst": "nonroot", "date": "2017-05-28 19:28:32.505000", "rel_confidence": "high", "rel_reason": "Related during automatic OTX import", "relationship": "Related To", "relationship_date": "2017-05-28 19:28:32.471000", "type": "Event", "value": "592b24e07f79fa013927af8f"}], "releasability": [], "schema_version": 5, "screenshots": [], "sectors": [], "source": [{"instances": [{"analyst": "nonroot", "date": "2017-05-28 19:28:32.180000", "method": "otx2crits", "reference": "No reference documented"}], "name": "AlienVault OTX"}], "status": "New", "threat_types": ["Unknown"], "tickets": [], "type": "Domain", "value": "gcpwa.com"}, {"_id": "592b24df7f79fa0138e76793", "actions": [], "activity": [], "attack_types": ["Unknown"], "bucket_list": ["phishing", "BOA"], "campaign": [], "confidence": {"analyst": "nonroot", "rating": "unknown"}, "created": "2017-05-28 19:28:31.494000", "description": "Phishing email - Fake BOA site", "impact": {"analyst": "nonroot", "rating": "unknown"}, "locations": [], "lower": "173.255.143.142", "modified": "2017-05-28 19:28:31.531000", "objects": [], "relationships": [{"analyst": "nonroot", "date": "2017-05-28 19:28:32.001000", "rel_confidence": "high", "rel_reason": "Related during automatic OTX import", "relationship": "Related To", "relationship_date": "2017-05-28 19:28:31.962000", "type": "Event", "value": "592b24de7f79fa0138e76785"}], "releasability": [], "schema_version": 5, "screenshots": [], "sectors": [], "source": [{"instances": [{"analyst": "nonroot", "date": "2017-05-28 19:28:31.502000", "method": "otx2crits", "reference": "No reference documented"}], "name": "AlienVault OTX"}], "status": "New", "threat_types": ["Unknown"], "tickets": [], "type": "IPv4 Address", "value": "173.255.143.142"}, {"_id": "592b24e07f79fa0138e76797", "actions": [], "activity": [], "attack_types": ["Unknown"], "bucket_list": ["phishing"], "campaign": [], "confidence": {"analyst": "nonroot", "rating": "unknown"}, "created": "2017-05-28 19:28:32.306000", "description": "Phishing email - Document Received- (scanned_New Invoice00874.pdf)", "impact": {"analyst": "nonroot", "rating": "unknown"}, "locations": [], "lower": "109.75.165.222", "modified": "2017-05-28 19:28:32.334000", "objects": [], "relationships": [{"analyst": "nonroot", "date": "2017-05-28 19:28:32.618000", "rel_confidence": "high", "rel_reason": "Related during automatic OTX import", "relationship": "Related To", "relationship_date": "2017-05-28 19:28:32.579000", "type": "Event", "value": "592b24e07f79fa013927af8f"}], "releasability": [], "schema_version": 5, "screenshots": [], "sectors": [], "source": [{"instances": [{"analyst": "nonroot", "date": "2017-05-28 19:28:32.315000", "method": "otx2crits", "reference": "No reference documented"}], "name": "AlienVault OTX"}], "status": "New", "threat_types": ["Unknown"], "tickets": [], "type": "IPv4 Address", "value": "109.75.165.222"}, {"_id": "592b24df7f79fa0138e7678d", "actions": [], "activity": [], "attack_types": ["Unknown"], "bucket_list": ["phishing", "BOA"], "campaign": [], "confidence": {"analyst": "nonroot", "rating": "unknown"}, "created": "2017-05-28 19:28:31.155000", "description": "Phishing email - Fake BOA site", "impact": {"analyst": "nonroot", "rating": "unknown"}, "locations": [], "lower": "homestaymerapi.com", "modified": "2017-05-28 19:28:31.180000", "objects": [], "relationships": [{"analyst": "nonroot", "date": "2017-05-28 19:28:31.865000", "rel_confidence": "high", "rel_reason": "Related during automatic OTX import", "relationship": "Related To", "relationship_date": "2017-05-28 19:28:31.827000", "type": "Event", "value": "592b24de7f79fa0138e76785"}], "releasability": [], "schema_version": 5, "screenshots": [], "sectors": [], "source": [{"instances": [{"analyst": "nonroot", "date": "2017-05-28 19:28:31.159000", "method": "otx2crits", "reference": "No reference documented"}], "name": "AlienVault OTX"}], "status": "New", "threat_types": ["Unknown"], "tickets": [], "type": "Domain", "value": "homestaymerapi.com"}, {"_id": "592b24dd7f79fa0138e76781", "actions": [], "activity": [], "attack_types": ["Unknown"], "bucket_list": [], "campaign": [], "confidence": {"analyst": "nonroot", "rating": "unknown"}, "created": "2017-05-28 19:28:29.936000", "description": "A worm that spreads by copying itself to file shares and removable drives.", "impact": {"analyst": "nonroot", "rating": "unknown"}, "locations": [], "lower": "serverjarvis.sytes.net", "modified": "2017-05-28 19:28:29.957000", "objects": [], "relationships": [{"analyst": "nonroot", "date": "2017-05-28 19:28:30.660000", "rel_confidence": "high", "rel_reason": "Related during automatic OTX import", "relationship": "Related To", "relationship_date": "2017-05-28 19:28:30.616000", "type": "Event", "value": "592b24dd7f79fa0138e7676d"}], "releasability": [], "schema_version": 5, "screenshots": [], "sectors": [], "source": [{"instances": [{"analyst": "nonroot", "date": "2017-05-28 19:28:29.936000", "method": "otx2crits", "reference": "No reference documented"}], "name": "AlienVault OTX"}], "status": "New", "threat_types": ["Unknown"], "tickets": [], "type": "Domain", "value": "serverjarvis.sytes.net"}, {"_id": "592b24df7f79fa0138e7678a", "actions": [], "activity": [], "attack_types": ["Unknown"], "bucket_list": ["phishing", "BOA"], "campaign": [], "confidence": {"analyst": "nonroot", "rating": "unknown"}, "created": "2017-05-28 19:28:31.027000", "description": "Phishing email - Fake BOA site", "impact": {"analyst": "nonroot", "rating": "unknown"}, "locations": [], "lower": "gmasson@lantretemps.com", "modified": "2017-05-28 19:28:31.064000", "objects": [], "relationships": [{"analyst": "nonroot", "date": "2017-05-28 19:28:31.823000", "rel_confidence": "high", "rel_reason": "Related during automatic OTX import", "relationship": "Related To", "relationship_date": "2017-05-28 19:28:31.786000", "type": "Event", "value": "592b24de7f79fa0138e76785"}], "releasability": [], "schema_version": 5, "screenshots": [], "sectors": [], "source": [{"instances": [{"analyst": "nonroot", "date": "2017-05-28 19:28:31.037000", "method": "otx2crits", "reference": "No reference documented"}], "name": "AlienVault OTX"}], "status": "New", "threat_types": ["Unknown"], "tickets": [], "type": "Email Address", "value": "gmasson@lantretemps.com"}, {"_id": "592b24de7f79fa0138e76787", "actions": [], "activity": [], "attack_types": ["Unknown"], "bucket_list": ["phishing", "BOA"], "campaign": [], "confidence": {"analyst": "nonroot", "rating": "unknown"}, "created": "2017-05-28 19:28:30.933000", "description": "Phishing email - Fake BOA site", "impact": {"analyst": "nonroot", "rating": "unknown"}, "locations": [], "lower": "oqtemoshoje.com.br", "modified": "2017-05-28 19:28:30.978000", "objects": [], "relationships": [{"analyst": "nonroot", "date": "2017-05-28 19:28:31.782000", "rel_confidence": "high", "rel_reason": "Related during automatic OTX import", "relationship": "Related To", "relationship_date": "2017-05-28 19:28:31.744000", "type": "Event", "value": "592b24de7f79fa0138e76785"}], "releasability": [], "schema_version": 5, "screenshots": [], "sectors": [], "source": [{"instances": [{"analyst": "nonroot", "date": "2017-05-28 19:28:30.950000", "method": "otx2crits", "reference": "No reference documented"}], "name": "AlienVault OTX"}], "status": "New", "threat_types": ["Unknown"], "tickets": [], "type": "Domain", "value": "oqtemoshoje.com.br"}, {"_id": "592b24c67f79fa0138e76663", "actions": [], "activity": [], "attack_types": ["Unknown"], "bucket_list": [], "campaign": [], "confidence": {"analyst": "nonroot", "rating": "unknown"}, "created": "2017-05-28 19:28:06.490000", "description": "IBM Trusteer researchers report GootKit v2 campaigns are in effect in Italy and the UK. GootKit has recently launched redirection attacks in the UK and in Italy and continues to attack in both these countries.", "impact": {"analyst": "nonroot", "rating": "unknown"}, "locations": [], "lower": "bbab0810bfb2d1aa14d06d41fbd1f08e", "modified": "2017-05-28 19:28:06.561000", "objects": [], "relationships": [{"analyst": "nonroot", "date": "2017-05-28 19:28:13.942000", "rel_confidence": "high", "rel_reason": "Related during automatic OTX import", "relationship": "Related To", "relationship_date": "2017-05-28 19:28:13.909000", "type": "Event", "value": "592b24c67f79fa013927aecb"}], "releasability": [], "schema_version": 5, "screenshots": [], "sectors": [], "source": [{"instances": [{"analyst": "nonroot", "date": "2017-05-28 19:28:06.490000", "method": "otx2crits", "reference": "No reference documented"}], "name": "AlienVault OTX"}], "status": "New", "threat_types": ["Unknown"], "tickets": [], "type": "MD5", "value": "bbab0810bfb2d1aa14d06d41fbd1f08e"}, {"_id": "592b24c67f79fa013927aecd", "actions": [], "activity": [], "attack_types": ["Unknown"], "bucket_list": [], "campaign": [], "confidence": {"analyst": "nonroot", "rating": "unknown"}, "created": "2017-05-28 19:28:06.659000", "description": "IBM Trusteer researchers report GootKit v2 campaigns are in effect in Italy and the UK. GootKit has recently launched redirection attacks in the UK and in Italy and continues to attack in both these countries.", "impact": {"analyst": "nonroot", "rating": "unknown"}, "locations": [], "lower": "f7125a3c9e780a460644bbbe181786d5", "modified": "2017-05-28 19:28:06.679000", "objects": [], "relationships": [{"analyst": "nonroot", "date": "2017-05-28 19:28:14.003000", "rel_confidence": "high", "rel_reason": "Related during automatic OTX import", "relationship": "Related To", "relationship_date": "2017-05-28 19:28:13.963000", "type": "Event", "value": "592b24c67f79fa013927aecb"}], "releasability": [], "schema_version": 5, "screenshots": [], "sectors": [], "source": [{"instances": [{"analyst": "nonroot", "date": "2017-05-28 19:28:06.659000", "method": "otx2crits", "reference": "No reference documented"}], "name": "AlienVault OTX"}], "status": "New", "threat_types": ["Unknown"], "tickets": [], "type": "MD5", "value": "f7125a3c9e780a460644bbbe181786d5"}, {"_id": "592b24c67f79fa013927aed0", "actions": [], "activity": [], "attack_types": ["Unknown"], "bucket_list": [], "campaign": [], "confidence": {"analyst": "nonroot", "rating": "unknown"}, "created": "2017-05-28 19:28:06.757000", "description": "IBM Trusteer researchers report GootKit v2 campaigns are in effect in Italy and the UK. GootKit has recently launched redirection attacks in the UK and in Italy and continues to attack in both these countries.", "impact": {"analyst": "nonroot", "rating": "unknown"}, "locations": [], "lower": "15e43c836e25f91990ccad5779f21960", "modified": "2017-05-28 19:28:06.775000", "objects": [], "relationships": [{"analyst": "nonroot", "date": "2017-05-28 19:28:14.046000", "rel_confidence": "high", "rel_reason": "Related during automatic OTX import", "relationship": "Related To", "relationship_date": "2017-05-28 19:28:14.008000", "type": "Event", "value": "592b24c67f79fa013927aecb"}], "releasability": [], "schema_version": 5, "screenshots": [], "sectors": [], "source": [{"instances": [{"analyst": "nonroot", "date": "2017-05-28 19:28:06.757000", "method": "otx2crits", "reference": "No reference documented"}], "name": "AlienVault OTX"}], "status": "New", "threat_types": ["Unknown"], "tickets": [], "type": "MD5", "value": "15e43c836e25f91990ccad5779f21960"}, {"_id": "592b24c67f79fa0138e76666", "actions": [], "activity": [], "attack_types": ["Unknown"], "bucket_list": [], "campaign": [], "confidence": {"analyst": "nonroot", "rating": "unknown"}, "created": "2017-05-28 19:28:06.837000", "description": "IBM Trusteer researchers report GootKit v2 campaigns are in effect in Italy and the UK. GootKit has recently launched redirection attacks in the UK and in Italy and continues to attack in both these countries.", "impact": {"analyst": "nonroot", "rating": "unknown"}, "locations": [], "lower": "ca18863391c96a6f1afec35a108f4257", "modified": "2017-05-28 19:28:06.906000", "objects": [], "relationships": [{"analyst": "nonroot", "date": "2017-05-28 19:28:14.084000", "rel_confidence": "high", "rel_reason": "Related during automatic OTX import", "relationship": "Related To", "relationship_date": "2017-05-28 19:28:14.051000", "type": "Event", "value": "592b24c67f79fa013927aecb"}], "releasability": [], "schema_version": 5, "screenshots": [], "sectors": [], "source": [{"instances": [{"analyst": "nonroot", "date": "2017-05-28 19:28:06.838000", "method": "otx2crits", "reference": "No reference documented"}], "name": "AlienVault OTX"}], "status": "New", "threat_types": ["Unknown"], "tickets": [], "type": "MD5", "value": "ca18863391c96a6f1afec35a108f4257"}, {"_id": "592b24c67f79fa0138e76669", "actions": [], "activity": [], "attack_types": ["Unknown"], "bucket_list": [], "campaign": [], "confidence": {"analyst": "nonroot", "rating": "unknown"}, "created": "2017-05-28 19:28:06.960000", "description": "IBM Trusteer researchers report GootKit v2 campaigns are in effect in Italy and the UK. GootKit has recently launched redirection attacks in the UK and in Italy and continues to attack in both these countries.", "impact": {"analyst": "nonroot", "rating": "unknown"}, "locations": [], "lower": "ebe4babd813271e3c93906c4244d2140", "modified": "2017-05-28 19:28:06.991000", "objects": [], "relationships": [{"analyst": "nonroot", "date": "2017-05-28 19:28:14.127000", "rel_confidence": "high", "rel_reason": "Related during automatic OTX import", "relationship": "Related To", "relationship_date": "2017-05-28 19:28:14.093000", "type": "Event", "value": "592b24c67f79fa013927aecb"}], "releasability": [], "schema_version": 5, "screenshots": [], "sectors": [], "source": [{"instances": [{"analyst": "nonroot", "date": "2017-05-28 19:28:06.960000", "method": "otx2crits", "reference": "No reference documented"}], "name": "AlienVault OTX"}], "status": "New", "threat_types": ["Unknown"], "tickets": [], "type": "MD5", "value": "ebe4babd813271e3c93906c4244d2140"}, {"_id": "592b24c77f79fa0138e7666c", "actions": [], "activity": [], "attack_types": ["Unknown"], "bucket_list": [], "campaign": [], "confidence": {"analyst": "nonroot", "rating": "unknown"}, "created": "2017-05-28 19:28:07.083000", "description": "IBM Trusteer researchers report GootKit v2 campaigns are in effect in Italy and the UK. GootKit has recently launched redirection attacks in the UK and in Italy and continues to attack in both these countries.", "impact": {"analyst": "nonroot", "rating": "unknown"}, "locations": [], "lower": "e7689bf5b51c34a8b03242da4d50bf4c", "modified": "2017-05-28 19:28:07.118000", "objects": [], "relationships": [{"analyst": "nonroot", "date": "2017-05-28 19:28:14.167000", "rel_confidence": "high", "rel_reason": "Related during automatic OTX import", "relationship": "Related To", "relationship_date": "2017-05-28 19:28:14.131000", "type": "Event", "value": "592b24c67f79fa013927aecb"}], "releasability": [], "schema_version": 5, "screenshots": [], "sectors": [], "source": [{"instances": [{"analyst": "nonroot", "date": "2017-05-28 19:28:07.083000", "method": "otx2crits", "reference": "No reference documented"}], "name": "AlienVault OTX"}], "status": "New", "threat_types": ["Unknown"], "tickets": [], "type": "MD5", "value": "e7689bf5b51c34a8b03242da4d50bf4c"}, {"_id": "592b24c77f79fa0138e7666f", "actions": [], "activity": [], "attack_types": ["Unknown"], "bucket_list": [], "campaign": [], "confidence": {"analyst": "nonroot", "rating": "unknown"}, "created": "2017-05-28 19:28:07.214000", "description": "IBM Trusteer researchers report GootKit v2 campaigns are in effect in Italy and the UK. GootKit has recently launched redirection attacks in the UK and in Italy and continues to attack in both these countries.", "impact": {"analyst": "nonroot", "rating": "unknown"}, "locations": [], "lower": "59d0ae7370cdff2c672a09c4aeba39ca", "modified": "2017-05-28 19:28:07.233000", "objects": [], "relationships": [{"analyst": "nonroot", "date": "2017-05-28 19:28:14.209000", "rel_confidence": "high", "rel_reason": "Related during automatic OTX import", "relationship": "Related To", "relationship_date": "2017-05-28 19:28:14.171000", "type": "Event", "value": "592b24c67f79fa013927aecb"}], "releasability": [], "schema_version": 5, "screenshots": [], "sectors": [], "source": [{"instances": [{"analyst": "nonroot", "date": "2017-05-28 19:28:07.214000", "method": "otx2crits", "reference": "No reference documented"}], "name": "AlienVault OTX"}], "status": "New", "threat_types": ["Unknown"], "tickets": [], "type": "MD5", "value": "59d0ae7370cdff2c672a09c4aeba39ca"}, {"_id": "592b24c77f79fa0138e76672", "actions": [], "activity": [], "attack_types": ["Unknown"], "bucket_list": [], "campaign": [], "confidence": {"analyst": "nonroot", "rating": "unknown"}, "created": "2017-05-28 19:28:07.292000", "description": "IBM Trusteer researchers report GootKit v2 campaigns are in effect in Italy and the UK. GootKit has recently launched redirection attacks in the UK and in Italy and continues to attack in both these countries.", "impact": {"analyst": "nonroot", "rating": "unknown"}, "locations": [], "lower": "4ae6ce9d41a201f5b582f559d5090c89", "modified": "2017-05-28 19:28:07.332000", "objects": [], "relationships": [{"analyst": "nonroot", "date": "2017-05-28 19:28:14.256000", "rel_confidence": "high", "rel_reason": "Related during automatic OTX import", "relationship": "Related To", "relationship_date": "2017-05-28 19:28:14.217000", "type": "Event", "value": "592b24c67f79fa013927aecb"}], "releasability": [], "schema_version": 5, "screenshots": [], "sectors": [], "source": [{"instances": [{"analyst": "nonroot", "date": "2017-05-28 19:28:07.292000", "method": "otx2crits", "reference": "No reference documented"}], "name": "AlienVault OTX"}], "status": "New", "threat_types": ["Unknown"], "tickets": [], "type": "MD5", "value": "4ae6ce9d41a201f5b582f559d5090c89"}, {"_id": "592b24c77f79fa0138e76675", "actions": [], "activity": [], "attack_types": ["Unknown"], "bucket_list": [], "campaign": [], "confidence": {"analyst": "nonroot", "rating": "unknown"}, "created": "2017-05-28 19:28:07.372000", "description": "IBM Trusteer researchers report GootKit v2 campaigns are in effect in Italy and the UK. GootKit has recently launched redirection attacks in the UK and in Italy and continues to attack in both these countries.", "impact": {"analyst": "nonroot", "rating": "unknown"}, "locations": [], "lower": "a9e5981202800ffbcacc12b65715c460", "modified": "2017-05-28 19:28:07.400000", "objects": [], "relationships": [{"analyst": "nonroot", "date": "2017-05-28 19:28:14.301000", "rel_confidence": "high", "rel_reason": "Related during automatic OTX import", "relationship": "Related To", "relationship_date": "2017-05-28 19:28:14.260000", "type": "Event", "value": "592b24c67f79fa013927aecb"}], "releasability": [], "schema_version": 5, "screenshots": [], "sectors": [], "source": [{"instances": [{"analyst": "nonroot", "date": "2017-05-28 19:28:07.372000", "method": "otx2crits", "reference": "No reference documented"}], "name": "AlienVault OTX"}], "status": "New", "threat_types": ["Unknown"], "tickets": [], "type": "MD5", "value": "a9e5981202800ffbcacc12b65715c460"}, {"_id": "592b24c77f79fa013927aed3", "actions": [], "activity": [], "attack_types": ["Unknown"], "bucket_list": [], "campaign": [], "confidence": {"analyst": "nonroot", "rating": "unknown"}, "created": "2017-05-28 19:28:07.491000", "description": "IBM Trusteer researchers report GootKit v2 campaigns are in effect in Italy and the UK. GootKit has recently launched redirection attacks in the UK and in Italy and continues to attack in both these countries.", "impact": {"analyst": "nonroot", "rating": "unknown"}, "locations": [], "lower": "e17593c62a380161b6db32272443677e", "modified": "2017-05-28 19:28:07.520000", "objects": [], "relationships": [{"analyst": "nonroot", "date": "2017-05-28 19:28:14.344000", "rel_confidence": "high", "rel_reason": "Related during automatic OTX import", "relationship": "Related To", "relationship_date": "2017-05-28 19:28:14.306000", "type": "Event", "value": "592b24c67f79fa013927aecb"}], "releasability": [], "schema_version": 5, "screenshots": [], "sectors": [], "source": [{"instances": [{"analyst": "nonroot", "date": "2017-05-28 19:28:07.492000", "method": "otx2crits", "reference": "No reference documented"}], "name": "AlienVault OTX"}], "status": "New", "threat_types": ["Unknown"], "tickets": [], "type": "MD5", "value": "e17593c62a380161b6db32272443677e"}, {"_id": "592b24c77f79fa013927aed6", "actions": [], "activity": [], "attack_types": ["Unknown"], "bucket_list": [], "campaign": [], "confidence": {"analyst": "nonroot", "rating": "unknown"}, "created": "2017-05-28 19:28:07.563000", "description": "IBM Trusteer researchers report GootKit v2 campaigns are in effect in Italy and the UK. GootKit has recently launched redirection attacks in the UK and in Italy and continues to attack in both these countries.", "impact": {"analyst": "nonroot", "rating": "unknown"}, "locations": [], "lower": "a4f1db25195ffb7234f6602907ea1c91", "modified": "2017-05-28 19:28:07.598000", "objects": [], "relationships": [{"analyst": "nonroot", "date": "2017-05-28 19:28:14.404000", "rel_confidence": "high", "rel_reason": "Related during automatic OTX import", "relationship": "Related To", "relationship_date": "2017-05-28 19:28:14.359000", "type": "Event", "value": "592b24c67f79fa013927aecb"}], "releasability": [], "schema_version": 5, "screenshots": [], "sectors": [], "source": [{"instances": [{"analyst": "nonroot", "date": "2017-05-28 19:28:07.563000", "method": "otx2crits", "reference": "No reference documented"}], "name": "AlienVault OTX"}], "status": "New", "threat_types": ["Unknown"], "tickets": [], "type": "MD5", "value": "a4f1db25195ffb7234f6602907ea1c91"}, {"_id": "592b24c77f79fa013927aed9", "actions": [], "activity": [], "attack_types": ["Unknown"], "bucket_list": [], "campaign": [], "confidence": {"analyst": "nonroot", "rating": "unknown"}, "created": "2017-05-28 19:28:07.649000", "description": "IBM Trusteer researchers report GootKit v2 campaigns are in effect in Italy and the UK. GootKit has recently launched redirection attacks in the UK and in Italy and continues to attack in both these countries.", "impact": {"analyst": "nonroot", "rating": "unknown"}, "locations": [], "lower": "a341afa429a9a1721119b6d660f0273f", "modified": "2017-05-28 19:28:07.669000", "objects": [], "relationships": [{"analyst": "nonroot", "date": "2017-05-28 19:28:14.463000", "rel_confidence": "high", "rel_reason": "Related during automatic OTX import", "relationship": "Related To", "relationship_date": "2017-05-28 19:28:14.411000", "type": "Event", "value": "592b24c67f79fa013927aecb"}], "releasability": [], "schema_version": 5, "screenshots": [], "sectors": [], "source": [{"instances": [{"analyst": "nonroot", "date": "2017-05-28 19:28:07.650000", "method": "otx2crits", "reference": "No reference documented"}], "name": "AlienVault OTX"}], "status": "New", "threat_types": ["Unknown"], "tickets": [], "type": "MD5", "value": "a341afa429a9a1721119b6d660f0273f"}, {"_id": "592b24c77f79fa013927aedc", "actions": [], "activity": [], "attack_types": ["Unknown"], "bucket_list": [], "campaign": [], "confidence": {"analyst": "nonroot", "rating": "unknown"}, "created": "2017-05-28 19:28:07.733000", "description": "IBM Trusteer researchers report GootKit v2 campaigns are in effect in Italy and the UK. GootKit has recently launched redirection attacks in the UK and in Italy and continues to attack in both these countries.", "impact": {"analyst": "nonroot", "rating": "unknown"}, "locations": [], "lower": "c1a469f0196b1dedb285aa50c8f8d0c7", "modified": "2017-05-28 19:28:07.759000", "objects": [], "relationships": [{"analyst": "nonroot", "date": "2017-05-28 19:28:14.539000", "rel_confidence": "high", "rel_reason": "Related during automatic OTX import", "relationship": "Related To", "relationship_date": "2017-05-28 19:28:14.497000", "type": "Event", "value": "592b24c67f79fa013927aecb"}], "releasability": [], "schema_version": 5, "screenshots": [], "sectors": [], "source": [{"instances": [{"analyst": "nonroot", "date": "2017-05-28 19:28:07.733000", "method": "otx2crits", "reference": "No reference documented"}], "name": "AlienVault OTX"}], "status": "New", "threat_types": ["Unknown"], "tickets": [], "type": "MD5", "value": "c1a469f0196b1dedb285aa50c8f8d0c7"}]}