{"meta": {"limit": 20, "next": "/api/v1/ips/?username=nonroot&api_key=479fe8be39b5ce65a87f19b27929ccbb8ed45d93&limit=20&offset=20&format=json", "offset": 0, "previous": null, "total_count": 29}, "objects": [{"_id": "592bf2417f79fa0138e76915", "actions": [], "bucket_list": [], "campaign": [], "created": "2017-05-29 10:04:49.882000", "description": "", "ip": "57.88.123.92", "locations": [], "modified": "2017-05-29 10:04:49.883000", "objects": [], "relationships": [], "releasability": [], "schema_version": 3, "screenshots": [], "sectors": [], "source": [{"instances": [{"analyst": "nonroot", "date": "2017-05-29 10:04:49.882000"}], "name": "Faker Vault"}], "status": "New", "tickets": [], "type": "IPv4 Address"}, {"_id": "592bf25e7f79fa013927b0f7", "actions": [], "bucket_list": [], "campaign": [], "created": "2017-05-29 10:05:18.860000", "description": "", "ip": "67.228.85.104", "locations": [], "modified": "2017-05-29 10:05:18.863000", "objects": [], "relationships": [], "releasability": [], "schema_version": 3, "screenshots": [], "sectors": [], "source": [{"instances": [{"analyst": "nonroot", "date": "2017-05-29 10:05:18.860000"}], "name": "Faker Vault"}], "status": "New", "tickets": [], "type": "IPv4 Address"}, {"_id": "592bf36d7f79fa013927b0fb", "actions": [], "bucket_list": [], "campaign": [], "created": "2017-05-29 10:09:49.785000", "description": "", "ip": "26.234.199.8", "locations": [], "modified": "2017-05-29 10:09:49.786000", "objects": [], "relationships": [], "releasability": [], "schema_version": 3, "screenshots": [], "sectors": [], "source": [{"instances": [{"analyst": "nonroot", "date": "2017-05-29 10:09:49.785000"}], "name": "Faker Vault"}], "status": "New", "tickets": [], "type": "IPv4 Address"}, {"_id": "592c07947f79fa0138e76928", "actions": [], "bucket_list": [], "campaign": [], "created": "2017-05-29 11:35:48.416000", "description": "", "ip": "64.110.72.121", "locations": [], "modified": "2017-05-29 11:35:48.416000", "objects": [], "relationships": [], "releasability": [], "schema_version": 3, "screenshots": [], "sectors": [], "source": [{"instances": [{"analyst": "nonroot", "date": "2017-05-29 11:35:48.416000"}], "name": "Faker Vault"}], "status": "New", "tickets": [], "type": "IPv4 Address"}, {"_id": "592c079d7f79fa013927b109", "actions": [], "bucket_list": [], "campaign": [], "created": "2017-05-29 11:35:57.940000", "description": "", "ip": "29.36.130.185", "locations": [], "modified": "2017-05-29 11:35:57.940000", "objects": [], "relationships": [], "releasability": [], "schema_version": 3, "screenshots": [], "sectors": [], "source": [{"instances": [{"analyst": "nonroot", "date": "2017-05-29 11:35:57.940000"}], "name": "Faker Vault"}], "status": "New", "tickets": [], "type": "IPv4 Address"}, {"_id": "592c07f97f79fa0138e76935", "actions": [], "bucket_list": [], "campaign": [], "created": "2017-05-29 11:37:29.958000", "description": "", "ip": "63.103.148.22", "locations": [], "modified": "2017-05-29 11:37:29.958000", "objects": [], "relationships": [], "releasability": [], "schema_version": 3, "screenshots": [], "sectors": [], "source": [{"instances": [{"analyst": "nonroot", "date": "2017-05-29 11:37:29.958000"}], "name": "Faker Vault"}], "status": "New", "tickets": [], "type": "IPv4 Address"}, {"_id": "592c08087f79fa0138e7693a", "actions": [], "bucket_list": [], "campaign": [], "created": "2017-05-29 11:37:44.173000", "description": "", "ip": "167.139.7.211", "locations": [], "modified": "2017-05-29 11:37:44.173000", "objects": [], "relationships": [], "releasability": [], "schema_version": 3, "screenshots": [], "sectors": [], "source": [{"instances": [{"analyst": "nonroot", "date": "2017-05-29 11:37:44.173000"}], "name": "Faker Vault"}], "status": "New", "tickets": [], "type": "IPv4 Address"}, {"_id": "592c09927f79fa013927b11a", "actions": [], "bucket_list": [], "campaign": [], "created": "2017-05-29 11:44:18.811000", "description": "", "ip": "228.19.209.230", "locations": [], "modified": "2017-05-29 11:44:18.811000", "objects": [], "relationships": [], "releasability": [], "schema_version": 3, "screenshots": [], "sectors": [], "source": [{"instances": [{"analyst": "nonroot", "date": "2017-05-29 11:44:18.811000"}], "name": "Faker Vault"}], "status": "New", "tickets": [], "type": "IPv4 Address"}, {"_id": "592c09a47f79fa013927b11e", "actions": [], "bucket_list": [], "campaign": [], "created": "2017-05-29 11:44:36.448000", "description": "", "ip": "77.152.96.134", "locations": [], "modified": "2017-05-29 11:44:36.449000", "objects": [], "relationships": [], "releasability": [], "schema_version": 3, "screenshots": [], "sectors": [], "source": [{"instances": [{"analyst": "nonroot", "date": "2017-05-29 11:44:36.449000"}], "name": "Faker Vault"}], "status": "New", "tickets": [], "type": "IPv4 Address"}, {"_id": "592c0a3d7f79fa0138e76955", "actions": [], "bucket_list": [], "campaign": [], "created": "2017-05-29 11:47:09.977000", "description": "", "ip": "5.241.14.181", "locations": [], "modified": "2017-05-29 11:47:09.978000", "objects": [], "relationships": [], "releasability": [], "schema_version": 3, "screenshots": [], "sectors": [], "source": [{"instances": [{"analyst": "nonroot", "date": "2017-05-29 11:47:09.977000"}], "name": "Faker Vault"}], "status": "New", "tickets": [], "type": "IPv4 Address"}, {"_id": "592c12d77f79fa013927b130", "actions": [], "bucket_list": [], "campaign": [], "created": "2017-05-29 12:23:51.144000", "description": "", "ip": "46.133.232.230", "locations": [], "modified": "2017-05-29 12:23:51.145000", "objects": [], "relationships": [], "releasability": [], "schema_version": 3, "screenshots": [], "sectors": [], "source": [{"instances": [{"analyst": "nonroot", "date": "2017-05-29 12:23:51.144000"}], "name": "Faker Vault"}], "status": "New", "tickets": [], "type": "IPv4 Address"}, {"_id": "592c2e897f79fa013927b141", "actions": [], "bucket_list": [], "campaign": [], "created": "2017-05-29 14:22:01.185000", "description": "", "ip": "99.138.173.6", "locations": [], "modified": "2017-05-29 14:22:01.185000", "objects": [], "relationships": [], "releasability": [], "schema_version": 3, "screenshots": [], "sectors": [], "source": [{"instances": [{"analyst": "nonroot", "date": "2017-05-29 14:22:01.185000"}], "name": "Faker Vault"}], "status": "New", "tickets": [], "type": "IPv4 Address"}, {"_id": "592c2e9e7f79fa0138e7696c", "actions": [], "bucket_list": [], "campaign": [], "created": "2017-05-29 14:22:22.909000", "description": "", "ip": "64.0.175.153", "locations": [], "modified": "2017-05-29 14:22:22.909000", "objects": [], "relationships": [], "releasability": [], "schema_version": 3, "screenshots": [], "sectors": [], "source": [{"instances": [{"analyst": "nonroot", "date": "2017-05-29 14:22:22.909000"}], "name": "Faker Vault"}], "status": "New", "tickets": [], "type": "IPv4 Address"}, {"_id": "592c2ec77f79fa0138e76978", "actions": [], "bucket_list": [], "campaign": [], "created": "2017-05-29 14:23:03.392000", "description": "", "ip": "49.112.6.6", "locations": [], "modified": "2017-05-29 14:23:03.393000", "objects": [], "relationships": [], "releasability": [], "schema_version": 3, "screenshots": [], "sectors": [], "source": [{"instances": [{"analyst": "nonroot", "date": "2017-05-29 14:23:03.392000"}], "name": "Faker Vault"}], "status": "New", "tickets": [], "type": "IPv4 Address"}, {"_id": "592c2ed47f79fa0138e76986", "actions": [], "bucket_list": [], "campaign": [], "created": "2017-05-29 14:23:16.379000", "description": "", "ip": "199.197.75.77", "locations": [], "modified": "2017-05-29 14:23:16.379000", "objects": [], "relationships": [], "releasability": [], "schema_version": 3, "screenshots": [], "sectors": [], "source": [{"instances": [{"analyst": "nonroot", "date": "2017-05-29 14:23:16.379000"}], "name": "Faker Vault"}], "status": "New", "tickets": [], "type": "IPv4 Address"}, {"_id": "592c2ee37f79fa0138e76991", "actions": [], "bucket_list": [], "campaign": [], "created": "2017-05-29 14:23:31.507000", "description": "", "ip": "221.178.182.87", "locations": [], "modified": "2017-05-29 14:23:31.508000", "objects": [], "relationships": [], "releasability": [], "schema_version": 3, "screenshots": [], "sectors": [], "source": [{"instances": [{"analyst": "nonroot", "date": "2017-05-29 14:23:31.508000"}], "name": "Faker Vault"}], "status": "New", "tickets": [], "type": "IPv4 Address"}, {"_id": "592c2ef37f79fa013927b176", "actions": [], "bucket_list": [], "campaign": [], "created": "2017-05-29 14:23:47.813000", "description": "", "ip": "32.174.169.99", "locations": [], "modified": "2017-05-29 14:23:47.815000", "objects": [], "relationships": [], "releasability": [], "schema_version": 3, "screenshots": [], "sectors": [], "source": [{"instances": [{"analyst": "nonroot", "date": "2017-05-29 14:23:47.814000"}], "name": "Faker Vault"}], "status": "New", "tickets": [], "type": "IPv4 Address"}, {"_id": "592c30267f79fa0138e769ad", "actions": [], "bucket_list": [], "campaign": [], "created": "2017-05-29 14:28:54.552000", "description": "", "ip": "132.5.199.249", "locations": [], "modified": "2017-05-29 14:28:54.553000", "objects": [], "relationships": [], "releasability": [], "schema_version": 3, "screenshots": [], "sectors": [], "source": [{"instances": [{"analyst": "nonroot", "date": "2017-05-29 14:28:54.552000"}], "name": "Faker Vault"}], "status": "New", "tickets": [], "type": "IPv4 Address"}, {"_id": "592c30487f79fa0138e769bb", "actions": [], "bucket_list": [], "campaign": [], "created": "2017-05-29 14:29:28.414000", "description": "", "ip": "100.131.114.1", "locations": [], "modified": "2017-05-29 14:29:28.415000", "objects": [], "relationships": [], "releasability": [], "schema_version": 3, "screenshots": [], "sectors": [], "source": [{"instances": [{"analyst": "nonroot", "date": "2017-05-29 14:29:28.415000"}], "name": "Faker Vault"}], "status": "New", "tickets": [], "type": "IPv4 Address"}, {"_id": "592c31fe7f79fa0138e769c1", "actions": [], "bucket_list": [], "campaign": [], "created": "2017-05-29 14:36:46.626000", "description": "", "ip": "74.149.24.0", "locations": [], "modified": "2017-05-29 14:36:46.626000", "objects": [], "relationships": [], "releasability": [], "schema_version": 3, "screenshots": [], "sectors": [], "source": [{"instances": [{"analyst": "nonroot", "date": "2017-05-29 14:36:46.626000"}], "name": "Faker Vault"}], "status": "New", "tickets": [], "type": "IPv4 Address"}]}